services.addons.mozilla.org:HSTS	5	17002	1500561654612,1,0
stats.g.doubleclick.net:HSTS	0	16862	1467819145048,1,0
api.qwant.com:HSTS	0	16862	1488469380437,1,1
s.qwant.com:HSTS	0	16862	1488469760163,1,1
www.qwantjunior.com:HSTS	1	16867	1488912850700,1,1
addons.cdn.mozilla.net:HSTS	0	16862	1488468860315,1,0
addons.mozilla.org:HSTS	3	17002	1500561658285,1,0
easylist-downloads.adblockplus.org:HSTS	0	16862	1488468934576,1,0
blocklist.addons.mozilla.org:HSTS	1	16874	1489510220253,1,0
notification.adblockplus.org:HSTS	0	16862	1488468994024,1,0
