/* XPM */
static char *iceweasel[] = {
/* columns rows colors chars-per-pixel */
"32 32 190 2 ",
"   c #1F1F20",
".  c #222223",
"X  c #3C5E3E",
"o  c #3E5E72",
"O  c gray36",
"+  c #44714C",
"@  c #456A52",
"#  c #425E69",
"$  c #445B78",
"%  c #44626D",
"&  c #446862",
"*  c #486671",
"=  c #516377",
"-  c #777777",
";  c #2216A4",
":  c #2617B4",
">  c #2A1BB7",
",  c #2B1CBC",
"<  c #2E21AC",
"1  c #382EA3",
"2  c #382ABA",
"3  c #3A3AB4",
"4  c #3C33BD",
"5  c #3E3CBF",
"6  c #463AAF",
"7  c #4134BC",
"8  c #493DBC",
"9  c #423FBA",
"0  c #3E5186",
"q  c #3B4495",
"w  c #3F40B2",
"e  c #414F8F",
"r  c #425684",
"t  c #445987",
"y  c #404B97",
"u  c #4A5698",
"i  c #4C52A6",
"p  c #515BA5",
"a  c #5850A8",
"s  c #4F42BF",
"d  c #5246BF",
"f  c #5C52B9",
"g  c #4955BC",
"h  c #4673AD",
"j  c #547FB3",
"k  c #2E1EC1",
"l  c #3222C4",
"z  c #3425C9",
"x  c #3B2CCC",
"c  c #392CC4",
"v  c #3D32C2",
"b  c #4334C3",
"n  c #453AC1",
"m  c #4B3EC3",
"M  c #4234CA",
"N  c #493BCB",
"B  c #4032D1",
"V  c #4E41C4",
"C  c #4A48C6",
"Z  c #564BC4",
"A  c #564ACB",
"S  c #5549C6",
"D  c #5D52C4",
"F  c #5D52CB",
"G  c #5353C1",
"H  c #5345D3",
"J  c #594DD2",
"K  c #5448D8",
"L  c #5D50D1",
"P  c #6359C5",
"I  c #655CCB",
"U  c #655BC6",
"Y  c #6559D4",
"T  c #675CDA",
"R  c #5967C4",
"E  c #6C61CB",
"W  c #6C65CB",
"Q  c #756CCC",
"!  c #756CC7",
"~  c #6D7ECA",
"^  c #7E75CE",
"/  c #707EC8",
"(  c #6D63D0",
")  c #6E64D8",
"_  c #746AD8",
"`  c #7D74D2",
"'  c #7A79D6",
"]  c #827ACF",
"[  c #837BD2",
"{  c #837AD8",
"}  c #847AE1",
"|  c #887FE0",
" . c #598199",
".. c #5C84B4",
"X. c #7684AC",
"o. c #7885A6",
"O. c #6A8DBD",
"+. c #6783BE",
"@. c #7388B7",
"#. c #6F91BE",
"$. c #7C92B5",
"%. c #7394BF",
"&. c #7688C6",
"*. c #7294C0",
"=. c #7D9DC4",
"-. c #7F96C8",
";. c #848484",
":. c #8594AF",
">. c #8D9DBD",
",. c #8A9CBA",
"<. c #A9ACAE",
"1. c #B6B6B6",
"2. c #8888C3",
"3. c #938CCC",
"4. c #8298C3",
"5. c #8B83D4",
"6. c #8B84DA",
"7. c #888AD7",
"8. c #908AD4",
"9. c #9992D6",
"0. c #9C95DA",
"q. c #9E98DA",
"w. c #9790D6",
"e. c #A39DDA",
"r. c #8BA4CB",
"t. c #8EAACE",
"y. c #8CA1C2",
"u. c #93ACCD",
"i. c #9AAACA",
"p. c #9FB1C9",
"a. c #92A8D0",
"s. c #9BB2D1",
"d. c #A8B8CC",
"f. c #A6A0DE",
"g. c #AAA5DD",
"h. c #A3B5D4",
"j. c #A3B9D6",
"k. c #AABDD2",
"l. c #A5B7DA",
"z. c #B8B4DA",
"x. c #A2A8C7",
"c. c #9087E3",
"v. c #9D96E7",
"b. c #A49CEA",
"n. c #A49DE2",
"m. c #AAA4E7",
"M. c #B3AEE2",
"N. c #BFBAEB",
"B. c #BBB6E6",
"V. c #B7B2F1",
"C. c #C2BEEA",
"Z. c #C0BCE5",
"A. c #C3BFF0",
"S. c #ADC2DC",
"D. c #B4C5DE",
"F. c #BBC6D7",
"G. c #BCCCE2",
"H. c #BED0E4",
"J. c #C6CEDB",
"K. c #C5C2DF",
"L. c #C4CFE2",
"P. c #CECAE6",
"I. c #C4C1EA",
"U. c #C9C5E6",
"Y. c #CCD9E8",
"T. c #C6D3E5",
"R. c #D1DBEA",
"E. c #D3D0EE",
"W. c #CAC6F2",
"Q. c #D1CEF4",
"!. c #D5D4F2",
"~. c #D8D5F2",
"^. c #DDDAF4",
"/. c #D6E0EE",
"(. c #D9E2EF",
"). c #D7E4F1",
"_. c #DBE6F2",
"`. c #DDE8F4",
"'. c #E2E3E6",
"]. c #E4ECF4",
"[. c #E8EEF5",
"{. c #EEEDFA",
"}. c #E8E6F8",
"|. c #ECF0F6",
" X c #ECF2F8",
".X c #F3F4F6",
"XX c #F2F5FB",
"oX c #F6F9FC",
"OX c #FDFEFE",
"+X c None",
/* pixels */
"+X+X+X+X+X+X+X+X+X+X+X+X+X+X+X+X+X+X*.L.j.+X%.r.j +X+X+X+X+X+X+X",
"+X+X+X+X+X+X+X+X+X+X+X+X+X+X+X+X+X+X].].XXOXoXOXoXD.#.+X+X+X+X+X",
"+X+X+X+X+X+X+X+X+X+X+X+XO.=.t.s.D.).XXOXOXOX]. XOXOXoXO.=.+X+X+X",
"+X+X+X+X+X+X+X+X+Xj.].OXOXOXOXOXOXOXOXOXOXOXOXOXOX XoXoX XXX+X+X",
"+X+X+X+X+X+X+X+X/.OXOXOXOXOXOXOXOXOXOXOX<.F.OXOX X|.OXOXOX].r.+X",
"+X+X+X+X+X+X+XG.OXOXOX].j.,.@.@.@.4.[.OX  = OXOXOXJ.OXOXOXXX+X+X",
"+X+X+X+X+X+XO.OXOX].$.i 3.z.U.P.K.z.J..XoX|.OXOXk.. <.OXOXs.+X+X",
"+X+X+X+X+X+Xj.OXJ.q U 0.g.M.z.Z.B.B.i.].oXOXOXOXOX1.oXOXu.+X+X+X",
"+X+X+X+X+X+XT.OXX.f ] 8.9.e.g.g.g.e.2.].(.OXOXOXOXoXXXG.+X+X+X+X",
"+X+X+X+X+X+XR.OXX.U ] w.5.w.e.g.g.e.5.X.|.- ;..X_.`.T.+X+X+X+X+X",
"+X+X+X+X+Xo R.OXo.D ! ~.E.0.e.0.e.0.e.2.,.;.O '.).+.+X+X+X+X+X+X",
"+X+X+X+X+Xc P.OXo. X! I.Z.^ ] [ ] ] ! E a :.,.p ; l % +X+X+X+X+X",
"+X+X+X+Xr k L.oX,.] d D [ [ ^ ` ^ Q W P Z 6 ! 8 e., 4 +X+X+X+X+X",
"+X+X+X+X4 , h.XXd.1 9 f W 9.] ^ ^ Q U P s D oX! > 2 z + +X+X+X+X",
"+X+X+X+Xz > *.R.x.< 7 d P 6.9.{ [ Q U P P F 5.4 : : l y +X+X+X+X",
"+X+X+X% l , 3 >.u 2 7 s P ` M.0.6.] [ [ P 2 8 V > : , 3 +X+X+X+X",
"+X+X+Xr l : > 5 V 2 7 Z I ] I.}.~.Z.0.Y m 7 7 Z > > , 4 +X+X+X+X",
"+X+X+Xe k , , C m 4 n Z I { ~.OXOXC.Q F m 4 N S , , , v +X+X+X+X",
"+X+X+X$ z , k C O.*.&.C ( 0.^.oX.Xn.( F m b V V k , k 4 +X+X+X+X",
"+X+X+X& z , l G h j *.s.4.6.{ m.C.6.I A N v A M l k l 6 +X+X+X+X",
"+X+X+X+Xx k l 5 O.#.u.D.R.G.&.` { n.) A C c F l l l x t +X+X+X+X",
"+X+X+X+Xs v l x r.r.S.R.[.oXOXG./ 6.6.F A H L x x k C  .+X+X+X+X",
"+X+X+X+X* x N | N.4.Y.].oXOXOXOXOXz.-._ Y ) Y H c z j.+X+X+X+X+X",
"+X+X+X+X+Xn x K } ~.r.XXOXOXOXOXOXOXXXB.' XX) K M R Y.+X+X+X+X+X",
"+X+X+X+X+X+XB J ) Q.v.-. XOXOXOXOXOXOXOX].l.&.R &.).t.+X+X+X+X+X",
"+X+X+X+X+X+X* K _ } b.v.2.F.OXoXOXoXoXoX X X`.]._.H.+X+X+X+X+X+X",
"+X+X+X+X+X+X+X* T c.m.m.V.M.$.d.]. X X[.].`.`.).S.+X+X+X+X+X+X+X",
"+X+X+X+X+X+X+X+X@ I v.V.N.Q.!.P.x.$.4.u.s.a.=...+X+X+X+X+X+X+X+X",
"+X+X+X+X+X+X+X+X+X+X* ) v.A.}.XX{.!.m.' p +X+X+X+X+X+X+X+X+X+X+X",
"+X+X+X+X+X+X+X+X+X+X+X+X+X# t p u $ X +X+X+X+X+X+X+X+X+X+X+X+X+X",
"+X+X+X+X+X+X+X+X+X+X+X+X+X+X+X+X+X+X+X+X+X+X+X+X+X+X+X+X+X+X+X+X",
"+X+X+X+X+X+X+X+X+X+X+X+X+X+X+X+X+X+X+X+X+X+X+X+X+X+X+X+X+X+X+X+X"
};
