/* XPM */
static char * pysycache_xpm[] = {
"32 32 239 2",
"  	c None",
". 	c #ABABAB",
"+ 	c #747474",
"@ 	c #808080",
"# 	c #D9D9D9",
"$ 	c #595959",
"% 	c #737373",
"& 	c #D5E6F7",
"* 	c #BEC3C8",
"= 	c #B2BCC5",
"- 	c #B3D8FD",
"; 	c #81858A",
"> 	c #6B88A4",
", 	c #1D8FFF",
"' 	c #509DEA",
") 	c #595F64",
"! 	c #5A5E62",
"~ 	c #4795E2",
"{ 	c #0B85FF",
"] 	c #709AC3",
"^ 	c #5E8FBF",
"/ 	c #0281FF",
"( 	c #3094F7",
"_ 	c #41566A",
": 	c #485867",
"< 	c #2F8EED",
"[ 	c #0080FF",
"} 	c #5D9AD8",
"| 	c #5E92C5",
"1 	c #007DF9",
"2 	c #2372B3",
"3 	c #57632E",
"4 	c #929200",
"5 	c #C8C800",
"6 	c #F6F600",
"7 	c #FFFF00",
"8 	c #F7F700",
"9 	c #CDCD00",
"0 	c #969600",
"a 	c #636B26",
"b 	c #276FA5",
"c 	c #007BF5",
"d 	c #619FDC",
"e 	c #607C98",
"f 	c #275C6F",
"g 	c #A6B116",
"h 	c #E7E700",
"i 	c #EEEE00",
"j 	c #B3BB10",
"k 	c #346460",
"l 	c #68849E",
"m 	c #848401",
"n 	c #F0F000",
"o 	c #939301",
"p 	c #F8F800",
"q 	c #FAFA00",
"r 	c #A1A100",
"s 	c #979700",
"t 	c #FDFD00",
"u 	c #A4A400",
"v 	c #5C5C00",
"w 	c #F5F500",
"x 	c #F9F900",
"y 	c #6E6E00",
"z 	c #00B500",
"A 	c #00C400",
"B 	c #00CB00",
"C 	c #00D600",
"D 	c #199F00",
"E 	c #C0C400",
"F 	c #CCCC00",
"G 	c #227100",
"H 	c #009D00",
"I 	c #008F00",
"J 	c #008600",
"K 	c #007E00",
"L 	c #00FF00",
"M 	c #519000",
"N 	c #F2F200",
"O 	c #628C00",
"P 	c #00FE00",
"Q 	c #00D900",
"R 	c #AAAA00",
"S 	c #C1C100",
"T 	c #00C200",
"U 	c #029E00",
"V 	c #0C9100",
"W 	c #1F8900",
"X 	c #368C00",
"Y 	c #00FC00",
"Z 	c #328B00",
"` 	c #499400",
" .	c #00F500",
"..	c #348C00",
"+.	c #FEFE00",
"@.	c #EBEB00",
"#.	c #E8E800",
"$.	c #4B9500",
"%.	c #2B8A00",
"&.	c #D7D700",
"*.	c #535300",
"=.	c #484800",
"-.	c #CECE00",
";.	c #429000",
">.	c #00F800",
",.	c #0A9000",
"'.	c #A9A901",
").	c #050501",
"!.	c #030300",
"~.	c #1C8A00",
"{.	c #00BA00",
"].	c #CACA00",
"^.	c #F8FC07",
"/.	c #C3E13B",
"(.	c #519C95",
"_.	c #053E5D",
":.	c #033958",
"<.	c #489395",
"[.	c #B3D94C",
"}.	c #EFF710",
"|.	c #DFDF00",
"1.	c #03A600",
"2.	c #00F900",
"3.	c #728C00",
"4.	c #FCFC00",
"5.	c #FDFE02",
"6.	c #E7F318",
"7.	c #B5DA4A",
"8.	c #75BA8A",
"9.	c #1A8DE5",
"0.	c #0080F6",
"a.	c #0080BF",
"b.	c #008089",
"c.	c #008088",
"d.	c #0080BB",
"e.	c #0080F4",
"f.	c #0C86F3",
"g.	c #5AADA5",
"h.	c #9DCE62",
"i.	c #D3E92C",
"j.	c #F5FA0A",
"k.	c #879500",
"l.	c #00EE00",
"m.	c #32A500",
"n.	c #DBDC00",
"o.	c #D6EA2A",
"p.	c #79BC86",
"q.	c #3FA0C0",
"r.	c #1088EF",
"s.	c #0080EC",
"t.	c #0080AE",
"u.	c #008083",
"v.	c #008080",
"w.	c #008082",
"x.	c #0080A8",
"y.	c #0080E6",
"z.	c #0482FB",
"A.	c #2995D6",
"B.	c #53A9AC",
"C.	c #A1D15E",
"D.	c #E6F318",
"E.	c #E5E500",
"F.	c #3F9C00",
"G.	c #02D600",
"H.	c #4B8927",
"I.	c #2C95D1",
"J.	c #0080F8",
"K.	c #0080D0",
"L.	c #008084",
"M.	c #0080C6",
"N.	c #0080F3",
"O.	c #0583FA",
"P.	c #2B795B",
"Q.	c #06CE01",
"R.	c #009500",
"S.	c #00A500",
"T.	c #00AC00",
"U.	c #00B600",
"V.	c #00BE00",
"W.	c #00640C",
"X.	c #005CB7",
"Y.	c #0080F9",
"Z.	c #0080B0",
"`.	c #0080A3",
" +	c #0080F0",
".+	c #0065CA",
"++	c #003D14",
"@+	c #008900",
"#+	c #008400",
"$+	c #007B00",
"%+	c #007500",
"&+	c #006D00",
"*+	c #001A34",
"=+	c #0061BE",
"-+	c #0080D4",
";+	c #008098",
">+	c #037E7E",
",+	c #485C5C",
"'+	c #356565",
")+	c #157575",
"!+	c #107878",
"~+	c #197373",
"{+	c #2E6969",
"]+	c #2B6A6A",
"^+	c #00808B",
"/+	c #0080C2",
"(+	c #0069C9",
"_+	c #002244",
":+	c #002645",
"<+	c #006D76",
"[+	c #027F7F",
"}+	c #366565",
"|+	c #4D5959",
"1+	c #754545",
"2+	c #A92B2B",
"3+	c #BA2323",
"4+	c #AA2B2B",
"5+	c #634E4E",
"6+	c #3A6363",
"7+	c #1A7373",
"8+	c #007275",
"9+	c #002B45",
"0+	c #004F4F",
"a+	c #007575",
"b+	c #077C7C",
"c+	c #296B6B",
"d+	c #097B7B",
"e+	c #007777",
"f+	c #005454",
"g+	c #001E1E",
"h+	c #003333",
"i+	c #005050",
"j+	c #007979",
"k+	c #007B7B",
"l+	c #003636",
"m+	c #002929",
"n+	c #004444",
"o+	c #004B4B",
"p+	c #002C2C",
"                                                                ",
"                                                                ",
"                  . +                     @ # $                 ",
"                % & *                     = - ;                 ",
"                > , ' )                 ! ~ { ]                 ",
"                ^ / ( _                 : < [ }                 ",
"                | 1 2 3 4 5 6 7 7 8 9 0 a b c d                 ",
"                e f g h 7 7 7 7 7 7 7 7 i j k l                 ",
"                m n 7 7 7 7 7 7 7 7 7 7 7 7 6 o                 ",
"              0 p 7 7 7 7 7 7 7 7 7 7 7 7 7 7 q r               ",
"            s q 7 7 7 7 7 7 7 7 7 7 7 7 7 7 7 7 t u             ",
"          v w 7 7 7 7 7 7 7 7 7 7 7 7 7 7 7 7 7 7 x y           ",
"z A B C D E 7 7 7 7 7 7 7 7 7 7 7 7 7 7 7 7 7 7 7 7 F G H I J K ",
"L L L L M N 7 7 7 7 7 7 7 7 7 7 7 7 7 7 7 7 7 7 7 7 8 O P L L L ",
"L L L Q R 7 7 7 7 7 7 7 7 7 7 7 7 7 7 7 7 7 7 7 7 7 7 S T L L L ",
"L L L U h 7 7 7 7 7 7 7 7 7 7 7 7 7 7 7 7 7 7 7 7 7 7 w V L L L ",
"L L L W 7 7 7 7 7 7 7 7 7 7 7 7 7 7 7 7 7 7 7 7 7 7 7 7 X Y L L ",
"L L L Z 7 7 7 7 7 7 7 7 7 7 7 7 7 7 7 7 7 7 7 7 7 7 7 7 `  .L L ",
"L L L ..7 7 7 7 7 7 7 7 7 7 +.@.#.t 7 7 7 7 7 7 7 7 7 7 $. .L L ",
"L L L %.7 7 7 7 7 7 7 7 7 7 &.*.=.-.7 7 7 7 7 7 7 7 7 7 ;.>.L L ",
"L L L ,.8 7 7 7 7 7 7 7 7 7 '.).!.s 7 7 7 7 7 7 7 7 7 t ~.L L L ",
"L L L {.].7 7 7 7 7 7 7 ^./.(._.:.<.[.}.7 7 7 7 7 7 7 |.1.L L L ",
"L L L 2.3.4.7 7 5.6.7.8.9.0.a.b.c.d.e.f.g.h.i.j.7 7 +.k.l.L L L ",
"L L L L m.n.5.o.p.q.r.[ s.t.u.v.v.w.x.y.[ z.A.B.C.D.E.F.L L L L ",
"L L L L G.H.I.z.[ [ J.K.b.v.v.v.v.v.v.L.M.N.[ [ [ O.P.Q.L L P Y ",
"R.S.T.U.V.W.X.[ [ Y.Z.c.v.v.v.v.v.v.v.v.L.`. +[ [ .+++@+#+$+%+&+",
"            *+=+-+;+v.>+,+'+)+!+!+!+~+{+]+v.^+/+(+_+            ",
"              :+<+v.v.[+}+|+1+2+3+4+5+6+7+v.v.8+9+              ",
"                  0+a+v.v.v.v.b+c+d+v.v.v.e+f+g+                ",
"                    h+i+j+v.v.v.v.v.v.k+f+l+                    ",
"                          m+n+o+o+n+p+                          ",
"                                                                "};
